Flu Data Exploration
…
NA
NA
NA
NA
NA
NA
NA
NA
NA
NA
NA
NA
NA

## # A tibble: 25 × 2
##    cost_complexity tree_depth
##              <dbl>      <int>
##  1    0.0000000001          1
##  2    0.0000000178          1
##  3    0.00000316            1
##  4    0.000562              1
##  5    0.1                   1
##  6    0.0000000001          4
##  7    0.0000000178          4
##  8    0.00000316            4
##  9    0.000562              4
## 10    0.1                   4
## # … with 15 more rows
…
#final model (LASSO) fitting ########################################

#lets restart our parallel processing
cluster<- makePSOCKcluster(5)
registerDoParallel(5)

#Now we will fit on the training set evaluating with the test data
LASSO_fit_final <-best_lasso_wf %>% last_fit(data_split)

#We will now use a trained workflow to predict using our 
#test data
final_test_performance<-LASSO_fit_final %>% collect_predictions()
print(final_test_performance)

## # A tibble: 222 × 5
##    id               .pred  .row BodyTemp .config             
##    <chr>            <dbl> <int>    <dbl> <chr>               
##  1 train/test split  99.4     2    100.  Preprocessor1_Model1
##  2 train/test split  99.0     4     98.8 Preprocessor1_Model1
##  3 train/test split  99.5    11     98.2 Preprocessor1_Model1
##  4 train/test split  99.5    12     97.9 Preprocessor1_Model1
##  5 train/test split  99.0    14    102.  Preprocessor1_Model1
##  6 train/test split  99.2    17     99.3 Preprocessor1_Model1
##  7 train/test split  99.4    25     97.8 Preprocessor1_Model1
##  8 train/test split  99.4    27     99.5 Preprocessor1_Model1
##  9 train/test split  99.4    29     99.7 Preprocessor1_Model1
## 10 train/test split  99.3    32     98.8 Preprocessor1_Model1
## # … with 212 more rows
…
