Marble Racing Data Exploration
…
#We will now define the workflow for the tree 
workflow_TREE <- workflow() %>%
            add_model(tune_spec_TREE) %>%
            add_recipe(recipe_avg_time_lap) 

We will now specify the tuning grid

grid_TREE <- grid_regular(cost_complexity(),
                          tree_depth(),
                          levels = 5)
grid_TREE

## # A tibble: 25 × 2
##    cost_complexity tree_depth
##              <dbl>      <int>
##  1    0.0000000001          1
##  2    0.0000000178          1
##  3    0.00000316            1
##  4    0.000562              1
##  5    0.1                   1
##  6    0.0000000001          4
##  7    0.0000000178          4
##  8    0.00000316            4
##  9    0.000562              4
## 10    0.1                   4
## # … with 15 more rows
…
When a variable is 0 it is no longer being used in the model, thus we are using all variables that are only part of the best fit model

tidy(extract_fit_parsnip(best_lasso_fit)) %>% filter(estimate !=0)

## # A tibble: 38 × 3
##    term            estimate penalty
##    <chr>              <dbl>   <dbl>
##  1 (Intercept)     -28.2     0.0574
##  2 time_s            0.0114  0.0574
##  3 track_length_m    4.18    0.0574
##  4 date_X14.Mar.20   1.88    0.0574
##  5 date_X15.Mar.20   3.47    0.0574
##  6 date_X16.Feb.20   0.156   0.0574
##  7 date_X21.Mar.20  -1.09    0.0574
##  8 date_X23.Feb.20   0.237   0.0574
##  9 date_X28.Mar.20  -0.554   0.0574
## 10 date_X29.Feb.20  -0.161   0.0574
## # … with 28 more rows
…
#lets restart our parallel processing
cluster<- makePSOCKcluster(5)
registerDoParallel(5)

Now we will fit on the training set evaluating with the test data

LASSO_fit_final <-best_lasso_wf %>% last_fit(data_split)

We will now use a trained workflow to predict using our test data

final_test_performance<-LASSO_fit_final %>% collect_predictions()
print(final_test_performance)

## # A tibble: 77 × 5
##    id               .pred  .row avg_time_lap .config             
##    <chr>            <dbl> <int>        <dbl> <chr>               
##  1 train/test split  29.4     1         28.1 Preprocessor1_Model1
##  2 train/test split  29.4     2         28.4 Preprocessor1_Model1
##  3 train/test split  29.3     7         29.0 Preprocessor1_Model1
##  4 train/test split  29.1     9         29.3 Preprocessor1_Model1
##  5 train/test split  29.4    10         29.5 Preprocessor1_Model1
##  6 train/test split  29.5    11         30.0 Preprocessor1_Model1
##  7 train/test split  29.5    12         30.1 Preprocessor1_Model1
##  8 train/test split  29.5    13         30.3 Preprocessor1_Model1
##  9 train/test split  32.8    20         32.6 Preprocessor1_Model1
## 10 train/test split  33.0    24         33.1 Preprocessor1_Model1
## # … with 67 more rows
…
