R coding Exercise Gapminder, Tidyverse, and Plotting
…
Notice that right now, due to multiple observation years for each country being reported, the data is disorganized and has formed ‘streaks’. To fix this, we must now narrow our data to a particular year.

We need to determine which years have missing data first to find the best year(s) for analysis. We can do this by utilizing the select function (to select the variable (year) and the variable that we are using the function for(infant_mortality)) combined with the filter command and the function (is.na), which is used to determine missing variables (na stands for non-applicable).

#write code that figures out which years have missing data for infant mortality
africadata %>% 
      group_by(year) %>% 
      summarise(infant_mortality_na = sum(is.na(infant_mortality))) %>% 
      filter(infant_mortality_na > 0) %>% 
      arrange(-infant_mortality_na)

## # A tibble: 23 × 2
##     year infant_mortality_na
##    <int>               <int>
##  1  2016                  51
##  2  1961                  17
##  3  1962                  16
##  4  1963                  16
##  5  1964                  15
##  6  1965                  14
##  7  1966                  13
##  8  1967                  11
##  9  1968                  11
## 10  1960                  10
## # … with 13 more rows
…
